\begin{thebibliography}{1}

\bibitem{Chavatal}
V~Chvátal.
\newblock A combinatorial theorem in plane geometry.
\newblock {\em Journal of Combinatorial Theory, Series B}, 18(1):39 -- 41,
  1975.

\bibitem{TheOne}
Stephane Durocher, Omrit Filtser, Robert Fraser, Ali~D. Mehrabi, and Saeed
  Mehrabi.
\newblock Guarding orthogonal art galleries with sliding cameras.
\newblock {\em Computational Geometry}, 65(Supplement C):12 -- 26, 2017.

\bibitem{Hassin}
Refael Hassin and Nimrod Megiddo.
\newblock Approximation algorithms for hitting objects with straight lines.
\newblock {\em Discrete Applied Mathematics}, 30(1):29 -- 42, 1991.

\bibitem{Kahn}
J.~Kahn, M.~Klawe, and D.~Kleitman.
\newblock Traditional galleries require fewer watchmen.
\newblock {\em SIAM Journal on Algebraic Discrete Methods}, 4(2):194--206,
  1983.

\bibitem{KatzMorgenstern}
MATTHEW~J. KATZ and GILA MORGENSTERN.
\newblock Guarding orthogonal art galleries with sliding cameras.
\newblock {\em International Journal of Computational Geometry amp;
  Applications}, 21(02):241--250, 2011.

\bibitem{Klee}
Joseph O'Rourke.
\newblock Art gallery theorems and algorithms.
\newblock {\em Oxford University Press}, 1987.

\end{thebibliography}
